^C:\USERS\RYAN\DESKTOP\MYGAME RYANDON\COCOS2D\COCOS\EDITOR-SUPPORT\SPINE\ANIMATION.C|C:\USERS\RYAN\DESKTOP\MYGAME RYANDON\COCOS2D\COCOS\EDITOR-SUPPORT\SPINE\ANIMATIONSTATE.C|C:\USERS\RYAN\DESKTOP\MYGAME RYANDON\COCOS2D\COCOS\EDITOR-SUPPORT\SPINE\ANIMATIONSTATEDATA.C|C:\USERS\RYAN\DESKTOP\MYGAME RYANDON\COCOS2D\COCOS\EDITOR-SUPPORT\SPINE\ATLAS.C|C:\USERS\RYAN\DESKTOP\MYGAME RYANDON\COCOS2D\COCOS\EDITOR-SUPPORT\SPINE\ATLASATTACHMENTLOADER.C|C:\USERS\RYAN\DESKTOP\MYGAME RYANDON\COCOS2D\COCOS\EDITOR-SUPPORT\SPINE\ATTACHMENT.C|C:\USERS\RYAN\DESKTOP\MYGAME RYANDON\COCOS2D\COCOS\EDITOR-SUPPORT\SPINE\ATTACHMENTLOADER.C|C:\USERS\RYAN\DESKTOP\MYGAME RYANDON\COCOS2D\COCOS\EDITOR-SUPPORT\SPINE\BONE.C|C:\USERS\RYAN\DESKTOP\MYGAME RYANDON\COCOS2D\COCOS\EDITOR-SUPPORT\SPINE\BONEDATA.C|C:\USERS\RYAN\DESKTOP\MYGAME RYANDON\COCOS2D\COCOS\EDITOR-SUPPORT\SPINE\BOUNDINGBOXATTACHMENT.C|C:\USERS\RYAN\DESKTOP\MYGAME RYANDON\COCOS2D\COCOS\EDITOR-SUPPORT\SPINE\EVENT.C|C:\USERS\RYAN\DESKTOP\MYGAME RYANDON\COCOS2D\COCOS\EDITOR-SUPPORT\SPINE\EVENTDATA.C|C:\USERS\RYAN\DESKTOP\MYGAME RYANDON\COCOS2D\COCOS\EDITOR-SUPPORT\SPINE\EXTENSION.C|C:\USERS\RYAN\DESKTOP\MYGAME RYANDON\COCOS2D\COCOS\EDITOR-SUPPORT\SPINE\IKCONSTRAINT.C|C:\USERS\RYAN\DESKTOP\MYGAME RYANDON\COCOS2D\COCOS\EDITOR-SUPPORT\SPINE\IKCONSTRAINTDATA.C|C:\USERS\RYAN\DESKTOP\MYGAME RYANDON\COCOS2D\COCOS\EDITOR-SUPPORT\SPINE\JSON.C|C:\USERS\RYAN\DESKTOP\MYGAME RYANDON\COCOS2D\COCOS\EDITOR-SUPPORT\SPINE\MESHATTACHMENT.C|C:\USERS\RYAN\DESKTOP\MYGAME RYANDON\COCOS2D\COCOS\EDITOR-SUPPORT\SPINE\PATHATTACHMENT.C|C:\USERS\RYAN\DESKTOP\MYGAME RYANDON\COCOS2D\COCOS\EDITOR-SUPPORT\SPINE\PATHCONSTRAINT.C|C:\USERS\RYAN\DESKTOP\MYGAME RYANDON\COCOS2D\COCOS\EDITOR-SUPPORT\SPINE\PATHCONSTRAINTDATA.C|C:\USERS\RYAN\DESKTOP\MYGAME RYANDON\COCOS2D\COCOS\EDITOR-SUPPORT\SPINE\REGIONATTACHMENT.C|C:\USERS\RYAN\DESKTOP\MYGAME RYANDON\COCOS2D\COCOS\EDITOR-SUPPORT\SPINE\SKELETON.C|C:\USERS\RYAN\DESKTOP\MYGAME RYANDON\COCOS2D\COCOS\EDITOR-SUPPORT\SPINE\SKELETONBINARY.C|C:\USERS\RYAN\DESKTOP\MYGAME RYANDON\COCOS2D\COCOS\EDITOR-SUPPORT\SPINE\SKELETONBOUNDS.C|C:\USERS\RYAN\DESKTOP\MYGAME RYANDON\COCOS2D\COCOS\EDITOR-SUPPORT\SPINE\SKELETONDATA.C|C:\USERS\RYAN\DESKTOP\MYGAME RYANDON\COCOS2D\COCOS\EDITOR-SUPPORT\SPINE\SKELETONJSON.C|C:\USERS\RYAN\DESKTOP\MYGAME RYANDON\COCOS2D\COCOS\EDITOR-SUPPORT\SPINE\SKIN.C|C:\USERS\RYAN\DESKTOP\MYGAME RYANDON\COCOS2D\COCOS\EDITOR-SUPPORT\SPINE\SLOT.C|C:\USERS\RYAN\DESKTOP\MYGAME RYANDON\COCOS2D\COCOS\EDITOR-SUPPORT\SPINE\SLOTDATA.C|C:\USERS\RYAN\DESKTOP\MYGAME RYANDON\COCOS2D\COCOS\EDITOR-SUPPORT\SPINE\TRANSFORMCONSTRAINT.C|C:\USERS\RYAN\DESKTOP\MYGAME RYANDON\COCOS2D\COCOS\EDITOR-SUPPORT\SPINE\TRANSFORMCONSTRAINTDATA.C|C:\USERS\RYAN\DESKTOP\MYGAME RYANDON\COCOS2D\COCOS\EDITOR-SUPPORT\SPINE\VERTEXATTACHMENT.C
C:\USERS\RYAN\DESKTOP\MYGAME RYANDON\COCOS2D\COCOS\EDITOR-SUPPORT\SPINE\PROJ.WIN32\RELEASE.WIN32\PATHCONSTRAINTDATA.OBJ
C:\USERS\RYAN\DESKTOP\MYGAME RYANDON\COCOS2D\COCOS\EDITOR-SUPPORT\SPINE\PROJ.WIN32\RELEASE.WIN32\PATHCONSTRAINT.OBJ
C:\USERS\RYAN\DESKTOP\MYGAME RYANDON\COCOS2D\COCOS\EDITOR-SUPPORT\SPINE\PROJ.WIN32\RELEASE.WIN32\PATHATTACHMENT.OBJ
C:\USERS\RYAN\DESKTOP\MYGAME RYANDON\COCOS2D\COCOS\EDITOR-SUPPORT\SPINE\PROJ.WIN32\RELEASE.WIN32\MESHATTACHMENT.OBJ
C:\USERS\RYAN\DESKTOP\MYGAME RYANDON\COCOS2D\COCOS\EDITOR-SUPPORT\SPINE\PROJ.WIN32\RELEASE.WIN32\JSON.OBJ
C:\USERS\RYAN\DESKTOP\MYGAME RYANDON\COCOS2D\COCOS\EDITOR-SUPPORT\SPINE\PROJ.WIN32\RELEASE.WIN32\IKCONSTRAINTDATA.OBJ
C:\USERS\RYAN\DESKTOP\MYGAME RYANDON\COCOS2D\COCOS\EDITOR-SUPPORT\SPINE\PROJ.WIN32\RELEASE.WIN32\IKCONSTRAINT.OBJ
C:\USERS\RYAN\DESKTOP\MYGAME RYANDON\COCOS2D\COCOS\EDITOR-SUPPORT\SPINE\PROJ.WIN32\RELEASE.WIN32\EXTENSION.OBJ
C:\USERS\RYAN\DESKTOP\MYGAME RYANDON\COCOS2D\COCOS\EDITOR-SUPPORT\SPINE\PROJ.WIN32\RELEASE.WIN32\EVENTDATA.OBJ
C:\USERS\RYAN\DESKTOP\MYGAME RYANDON\COCOS2D\COCOS\EDITOR-SUPPORT\SPINE\PROJ.WIN32\RELEASE.WIN32\EVENT.OBJ
C:\USERS\RYAN\DESKTOP\MYGAME RYANDON\COCOS2D\COCOS\EDITOR-SUPPORT\SPINE\PROJ.WIN32\RELEASE.WIN32\BOUNDINGBOXATTACHMENT.OBJ
C:\USERS\RYAN\DESKTOP\MYGAME RYANDON\COCOS2D\COCOS\EDITOR-SUPPORT\SPINE\PROJ.WIN32\RELEASE.WIN32\BONEDATA.OBJ
C:\USERS\RYAN\DESKTOP\MYGAME RYANDON\COCOS2D\COCOS\EDITOR-SUPPORT\SPINE\PROJ.WIN32\RELEASE.WIN32\BONE.OBJ
C:\USERS\RYAN\DESKTOP\MYGAME RYANDON\COCOS2D\COCOS\EDITOR-SUPPORT\SPINE\PROJ.WIN32\RELEASE.WIN32\ATTACHMENTLOADER.OBJ
C:\USERS\RYAN\DESKTOP\MYGAME RYANDON\COCOS2D\COCOS\EDITOR-SUPPORT\SPINE\PROJ.WIN32\RELEASE.WIN32\ATTACHMENT.OBJ
C:\USERS\RYAN\DESKTOP\MYGAME RYANDON\COCOS2D\COCOS\EDITOR-SUPPORT\SPINE\PROJ.WIN32\RELEASE.WIN32\ATLASATTACHMENTLOADER.OBJ
C:\USERS\RYAN\DESKTOP\MYGAME RYANDON\COCOS2D\COCOS\EDITOR-SUPPORT\SPINE\PROJ.WIN32\RELEASE.WIN32\ATLAS.OBJ
C:\USERS\RYAN\DESKTOP\MYGAME RYANDON\COCOS2D\COCOS\EDITOR-SUPPORT\SPINE\PROJ.WIN32\RELEASE.WIN32\ANIMATIONSTATEDATA.OBJ
C:\USERS\RYAN\DESKTOP\MYGAME RYANDON\COCOS2D\COCOS\EDITOR-SUPPORT\SPINE\PROJ.WIN32\RELEASE.WIN32\ANIMATIONSTATE.OBJ
C:\USERS\RYAN\DESKTOP\MYGAME RYANDON\COCOS2D\COCOS\EDITOR-SUPPORT\SPINE\PROJ.WIN32\RELEASE.WIN32\ANIMATION.OBJ
C:\USERS\RYAN\DESKTOP\MYGAME RYANDON\COCOS2D\COCOS\EDITOR-SUPPORT\SPINE\PROJ.WIN32\RELEASE.WIN32\VERTEXATTACHMENT.OBJ
C:\USERS\RYAN\DESKTOP\MYGAME RYANDON\COCOS2D\COCOS\EDITOR-SUPPORT\SPINE\PROJ.WIN32\RELEASE.WIN32\TRANSFORMCONSTRAINTDATA.OBJ
C:\USERS\RYAN\DESKTOP\MYGAME RYANDON\COCOS2D\COCOS\EDITOR-SUPPORT\SPINE\PROJ.WIN32\RELEASE.WIN32\TRANSFORMCONSTRAINT.OBJ
C:\USERS\RYAN\DESKTOP\MYGAME RYANDON\COCOS2D\COCOS\EDITOR-SUPPORT\SPINE\PROJ.WIN32\RELEASE.WIN32\SLOTDATA.OBJ
C:\USERS\RYAN\DESKTOP\MYGAME RYANDON\COCOS2D\COCOS\EDITOR-SUPPORT\SPINE\PROJ.WIN32\RELEASE.WIN32\SLOT.OBJ
C:\USERS\RYAN\DESKTOP\MYGAME RYANDON\COCOS2D\COCOS\EDITOR-SUPPORT\SPINE\PROJ.WIN32\RELEASE.WIN32\SKIN.OBJ
C:\USERS\RYAN\DESKTOP\MYGAME RYANDON\COCOS2D\COCOS\EDITOR-SUPPORT\SPINE\PROJ.WIN32\RELEASE.WIN32\SKELETONJSON.OBJ
C:\USERS\RYAN\DESKTOP\MYGAME RYANDON\COCOS2D\COCOS\EDITOR-SUPPORT\SPINE\PROJ.WIN32\RELEASE.WIN32\SKELETONDATA.OBJ
C:\USERS\RYAN\DESKTOP\MYGAME RYANDON\COCOS2D\COCOS\EDITOR-SUPPORT\SPINE\PROJ.WIN32\RELEASE.WIN32\SKELETONBOUNDS.OBJ
C:\USERS\RYAN\DESKTOP\MYGAME RYANDON\COCOS2D\COCOS\EDITOR-SUPPORT\SPINE\PROJ.WIN32\RELEASE.WIN32\SKELETONBINARY.OBJ
C:\USERS\RYAN\DESKTOP\MYGAME RYANDON\COCOS2D\COCOS\EDITOR-SUPPORT\SPINE\PROJ.WIN32\RELEASE.WIN32\SKELETON.OBJ
C:\USERS\RYAN\DESKTOP\MYGAME RYANDON\COCOS2D\COCOS\EDITOR-SUPPORT\SPINE\PROJ.WIN32\RELEASE.WIN32\REGIONATTACHMENT.OBJ
^C:\USERS\RYAN\DESKTOP\MYGAME RYANDON\COCOS2D\COCOS\EDITOR-SUPPORT\SPINE\ATTACHMENTVERTICES.CPP|C:\USERS\RYAN\DESKTOP\MYGAME RYANDON\COCOS2D\COCOS\EDITOR-SUPPORT\SPINE\COCOS2DATTACHMENTLOADER.CPP|C:\USERS\RYAN\DESKTOP\MYGAME RYANDON\COCOS2D\COCOS\EDITOR-SUPPORT\SPINE\SKELETONANIMATION.CPP|C:\USERS\RYAN\DESKTOP\MYGAME RYANDON\COCOS2D\COCOS\EDITOR-SUPPORT\SPINE\SKELETONBATCH.CPP|C:\USERS\RYAN\DESKTOP\MYGAME RYANDON\COCOS2D\COCOS\EDITOR-SUPPORT\SPINE\SKELETONRENDERER.CPP|C:\USERS\RYAN\DESKTOP\MYGAME RYANDON\COCOS2D\COCOS\EDITOR-SUPPORT\SPINE\SPINE-COCOS2DX.CPP
C:\USERS\RYAN\DESKTOP\MYGAME RYANDON\COCOS2D\COCOS\EDITOR-SUPPORT\SPINE\PROJ.WIN32\RELEASE.WIN32\SPINE-COCOS2DX.OBJ
C:\USERS\RYAN\DESKTOP\MYGAME RYANDON\COCOS2D\COCOS\EDITOR-SUPPORT\SPINE\PROJ.WIN32\RELEASE.WIN32\SKELETONRENDERER.OBJ
C:\USERS\RYAN\DESKTOP\MYGAME RYANDON\COCOS2D\COCOS\EDITOR-SUPPORT\SPINE\PROJ.WIN32\RELEASE.WIN32\SKELETONBATCH.OBJ
C:\USERS\RYAN\DESKTOP\MYGAME RYANDON\COCOS2D\COCOS\EDITOR-SUPPORT\SPINE\PROJ.WIN32\RELEASE.WIN32\SKELETONANIMATION.OBJ
C:\USERS\RYAN\DESKTOP\MYGAME RYANDON\COCOS2D\COCOS\EDITOR-SUPPORT\SPINE\PROJ.WIN32\RELEASE.WIN32\COCOS2DATTACHMENTLOADER.OBJ
C:\USERS\RYAN\DESKTOP\MYGAME RYANDON\COCOS2D\COCOS\EDITOR-SUPPORT\SPINE\PROJ.WIN32\RELEASE.WIN32\ATTACHMENTVERTICES.OBJ
